{
    "python.linting.enabled": true,
    "python.linting.flake8Enabled": true,
    "python.formatting.provider": "black",
    "clangd.path": "~/.config/coc/extensions/coc-clangd-data/install/14.0.3/clangd_14.0.3/bin/clangd",
    "languageserver": {
        "terraform": {
            "command": "terraform-ls",
            "args": ["serve"],
            "filetypes": [
                "terraform",
                "tf"
            ],
            "initializationOptions": {},
            "settings": {}
        }
    }
}
